C:\Users\jmsanchez\IdeaProjects\ChoucairAutomatizacion\automatizacion_choucair_serenitybdd_cucumber\src\test\java\com\choucair\formacion\steps\ColorlibFormValidationSteps.java
C:\Users\jmsanchez\IdeaProjects\ChoucairAutomatizacion\automatizacion_choucair_serenitybdd_cucumber\src\test\java\com\choucair\formacion\pageobject\ColorlibFormValidationPage.java
C:\Users\jmsanchez\IdeaProjects\ChoucairAutomatizacion\automatizacion_choucair_serenitybdd_cucumber\src\test\java\com\choucair\formacion\pageobject\ColorlibMenuPage.java
C:\Users\jmsanchez\IdeaProjects\ChoucairAutomatizacion\automatizacion_choucair_serenitybdd_cucumber\src\test\java\com\choucair\formacion\RunnerFeatures.java
C:\Users\jmsanchez\IdeaProjects\ChoucairAutomatizacion\automatizacion_choucair_serenitybdd_cucumber\src\test\java\com\choucair\formacion\definition\PopupValidationDefinition.java
C:\Users\jmsanchez\IdeaProjects\ChoucairAutomatizacion\automatizacion_choucair_serenitybdd_cucumber\src\test\java\com\choucair\formacion\pageobject\ColorlibLoginPage.java
C:\Users\jmsanchez\IdeaProjects\ChoucairAutomatizacion\automatizacion_choucair_serenitybdd_cucumber\src\test\java\com\choucair\formacion\steps\PopupValidationSteps.java
C:\Users\jmsanchez\IdeaProjects\ChoucairAutomatizacion\automatizacion_choucair_serenitybdd_cucumber\src\test\java\com\choucair\formacion\RunnerTags.java
